1.01722 
1.01722 
1.01722 
1.01722 
1.01722 
1.01762 
1.01762 
1.01762 
1.01803 
1.01803 
1.01803 
1.01845 
1.01888 
1.01888 
1.01932 
1.01977 
1.01977 
1.02024 
1.02071 
1.0212 
1.02169 
1.0222 
1.02272 
1.02326 
1.02381 
1.02494 
1.02553 
1.02614 
1.02676 
1.02804 
1.0287 
1.03008 
1.03079 
1.03227 
1.03382 
1.03462 
1.03628 
1.03802 
1.03984 
1.04175 
1.04273 
1.04477 
1.04691 
1.05029 
1.05267 
1.05516 
1.05775 
1.06046 
1.06473 
1.06773 
1.07085 
1.07576 
1.0792 
1.0846 
1.08836 
1.09427 
1.09838 
1.1048 
1.11153 
1.11858 
1.12344 
1.13099 
1.13884 
1.14697 
1.15538 
1.16404 
1.17294 
1.18205 
1.19135 
1.20082 
1.21365 
1.2234 
1.2332 
1.24304 
1.25615 
1.26593 
1.27885 
1.28841 
1.30092 
1.3101 
1.32202 
1.33069 
1.34186 
1.35256 
1.36025 
1.37005 
1.37933 
1.38808 
1.39429 
1.40212 
1.40943 
1.41624 
1.42258 
1.42845 
1.43389 
1.43892 
1.44356 
1.44784 
1.45178 
1.45625 
1.45951 
1.4625 
1.46525 
1.46836 
1.47062 
1.47269 
1.47504 
1.47675 
1.47831 
1.48009 
1.48138 
1.48284 
1.48391 
1.48511 
1.48599 
1.48699 
1.48772 
1.48855 
1.4893 
1.48985 
1.49047 
1.49092 
1.49144 
1.49191 
1.49233 
1.49264 
1.493 
1.49332 
1.49361 
1.49382 
1.49406 
1.49427 
1.49447 
1.49464 
1.49479 
1.49491 
1.49503 
1.49514 
1.49523 
1.49532 
1.49538 
1.49544 
1.49549 
1.49552 
1.49554 
1.49555 
1.49555 
1.49555 
1.49553 
1.4955 
1.49546 
1.49541 
1.49534 
1.49527 
1.49519 
1.49509 
1.49498 
1.49486 
1.49473 
1.49458 
1.49442 
1.49424 
1.49404 
1.49383 
1.49359 
1.49334 
1.49306 
1.49276 
1.49251 
1.49216 
1.49178 
1.49138 
1.49094 
1.49046 
1.48994 
1.48938 
1.48878 
1.48812 
1.48741 
1.48664 
1.48581 
1.48509 
1.48413 
1.48309 
1.48196 
1.48074 
1.47942 
1.47828 
1.47676 
1.4751 
1.47332 
1.47178 
1.46972 
1.46749 
1.46557 
1.46301 
1.46023 
1.45786 
1.45468 
1.45125 
1.44831 
1.4444 
1.44105 
1.43659 
1.4328 
1.42775 
1.42345 
1.41893 
1.41293 
1.40786 
1.40254 
1.39553 
1.38962 
1.38346 
1.37703 
1.36863 
1.36163 
1.35437 
1.34686 
1.33912 
1.33116 
1.32299 
1.31462 
1.30607 
1.29735 
1.2885 
1.27953 
1.27047 
1.26134 
1.25445 
1.24526 
1.23606 
1.22689 
1.22005 
1.21098 
1.20425 
1.19537 
1.1888 
1.18017 
1.17381 
1.1655 
1.1594 
1.15342 
1.14564 
1.13996 
1.13442 
1.12903 
1.12377 
1.11699 
1.11208 
1.10732 
1.10272 
1.09973 
1.09537 
1.09116 
1.0871 
1.08318 
1.07941 
1.07698 
1.07345 
1.07117 
1.06786 
1.06469 
1.06265 
1.06066 
1.05779 
1.05594 
1.05415 
1.05155 
1.04989 
1.04827 
1.0467 
1.04518 
1.0437 
1.04227 
1.04089 
1.03954 
1.03824 
1.03698 
1.03637 
1.03516 
1.034 
1.03343 
1.03232 
1.03178 
1.03072 
1.03021 
1.0292 
1.02871 
1.02823 
1.02775 
1.02683 
1.02638 
1.02593 
1.0255 
1.02507 
1.02464 
1.02423 
1.02423 
1.02382 
1.02342 
1.02302 
1.02302 
1.02263 
1.02263 
1.02225 
1.02225 
1.02188 
1.02188 
1.02188 
1.02151 
1.02151 
1.02151 
1.02151 
1.02151 
